 ======================================================================
                       Training process started.                       
 ======================================================================
                                                                       
                          2017-10-01  08:39:47                         
                                                                       
 
 Copyright (C) 2015-2016 Nongnuch Artrith and Alexander Urban
 
 This program is distributed in the hope that it will be useful,
 but WITHOUT ANY WARRANTY; without even the implied warranty of
 MERCHANTABILITY or FITNESS FOR A PARTICULAR PURPOSE.  See the
 GNU General Public License in file `LICENSE' for more details.
 
 ----------------------------------------------------------------------
                              Parallel run                             
 ----------------------------------------------------------------------
 
 Number of processes : 1
 
 ----------------------------------------------------------------------
                       Training set normalization                      
 ----------------------------------------------------------------------
 
 The training set will be normalized now.  Depending on its size this
 process can take a while.  The normalized data set will be written to
 another file. Load that file in future to avoid this step.
 
 Name of the new training set file: refdata.train.scaled
 
 The network output energy will be normalized to the interval [-1,1].
   Energy scaling factor: f = 3.539518
   Atomic energy shift  : s = 0.230763
 
 Training set normalization done.
 
 ----------------------------------------------------------------------
                                Networks                               
 ----------------------------------------------------------------------
 
 Creating a new O network
 
 Number of layers :   4
 
 Number of nodes (without bias) 
 and activation type per layer :
 
       1 :    50
       2 :    10  hyperbolic tangent (tanh)
       3 :    10  hyperbolic tangent (tanh)
       4 :     1  linear function (linear)
 
 Required memory (words) :     278643 (   2176.90 KB)
 
 Total number of weights (incl. bias) :      631
 
 Creating a new H network
 
 Number of layers :   4
 
 Number of nodes (without bias) 
 and activation type per layer :
 
       1 :    50
       2 :    10  hyperbolic tangent (tanh)
       3 :    10  hyperbolic tangent (tanh)
       4 :     1  linear function (linear)
 
 Required memory (words) :     278643 (   2176.90 KB)
 
 Total number of weights (incl. bias) :      631
 
 Timing info will be written to: train.time
 
 ----------------------------------------------------------------------
                            Storing networks                           
 ----------------------------------------------------------------------
 
 Saving the O network to file : O.10t-10t.ann
 Saving the H network to file : H.10t-10t.ann
 
 ----------------------------------------------------------------------
                           Training set info.                          
 ----------------------------------------------------------------------
 
 Training set file                   : refdata.train.scaled
 Number of structures in the data set: 10000
 
 Atomic species in training set      : 2
   Species : O H
 
 Average energy (eV/atom) : -0.821398
 Minimum energy (eV/atom) : -1.000000
 Maximum energy (eV/atom) : 1.000000
 
 The input and output values have been normalized to [-1.0, 1.0].
 Structures outside of this interval will not be used for training.
   Energy scaling factor: 3.539518
   Atomic energy shift  : 0.230763
 
 ----------------------------------------------------------------------
                            Training details                           
 ----------------------------------------------------------------------
 
 Training method         : Limited Memory BFGS
 
 Number of iterations    : 1000
 
 Training structures     : 9000
 Testing  structures     : 1000
 
 Testing set : 
 
      28       39       46       57       65       86      103      117 
     123      126      146      154      163      165      179      190 
     200      207      215      231      243      262      297      307 
     317      356      369      374      385      394      395      399 
     420      422      429      433      451      452      456      467 
     474      492      494      498      499      500      506      509 
     518      529      531      537      545      570      571      575 
     581      590      596      608      631      665      666      678 
     683      708      716      735      752      756      769      773 
     779      792      851      852      857      862      865      896 
     912      917      918      927      945      951      955      963 
     964      978      987      988      993      996     1001     1007 
    1016     1030     1042     1086     1087     1099     1107     1109 
    1118     1126     1144     1152     1158     1164     1173     1187 
    1200     1206     1215     1216     1221     1242     1245     1290 
    1295     1306     1314     1324     1326     1336     1350     1351 
    1383     1385     1401     1413     1425     1462     1463     1473 
    1481     1482     1490     1500     1518     1519     1526     1537 
    1542     1555     1559     1575     1581     1592     1595     1596 
    1625     1637     1647     1653     1655     1670     1677     1686 
    1706     1724     1727     1729     1733     1743     1747     1751 
    1756     1765     1779     1784     1788     1818     1834     1838 
    1842     1851     1867     1882     1886     1906     1907     1914 
    1918     1925     1930     1935     1939     1955     1965     1973 
    1993     1994     1997     2005     2009     2012     2037     2044 
    2050     2056     2069     2070     2083     2089     2102     2117 
    2132     2150     2155     2156     2189     2198     2204     2215 
    2216     2267     2272     2278     2300     2338     2346     2347 
    2364     2367     2368     2370     2377     2382     2391     2395 
    2397     2399     2415     2426     2459     2471     2475     2478 
    2508     2562     2567     2573     2579     2581     2601     2607 
    2610     2614     2618     2661     2664     2694     2699     2722 
    2725     2737     2745     2767     2774     2775     2796     2821 
    2840     2866     2869     2908     2953     2978     2979     2980 
    2982     2991     3001     3014     3036     3037     3051     3067 
    3084     3087     3104     3131     3138     3178     3184     3193 
    3224     3230     3240     3244     3286     3289     3290     3292 
    3303     3338     3349     3355     3357     3367     3371     3382 
    3390     3391     3395     3397     3399     3409     3417     3484 
    3486     3506     3528     3537     3538     3557     3564     3591 
    3594     3619     3645     3659     3675     3708     3728     3738 
    3741     3751     3753     3758     3760     3761     3762     3778 
    3804     3812     3824     3839     3845     3861     3891     3898 
    3921     3926     3935     3945     3976     3985     4005     4008 
    4013     4016     4021     4023     4034     4050     4062     4072 
    4073     4078     4092     4093     4101     4107     4111     4114 
    4122     4126     4133     4139     4140     4149     4164     4167 
    4185     4194     4198     4219     4255     4269     4273     4276 
    4279     4282     4314     4321     4331     4356     4361     4369 
    4370     4375     4379     4396     4411     4415     4431     4435 
    4450     4467     4474     4477     4480     4494     4497     4507 
    4516     4519     4554     4557     4560     4564     4575     4582 
    4589     4590     4591     4599     4601     4620     4626     4641 
    4670     4687     4698     4707     4713     4714     4721     4728 
    4735     4738     4742     4745     4759     4775     4784     4790 
    4799     4803     4808     4819     4821     4827     4831     4833 
    4848     4868     4885     4898     4900     4921     4928     4941 
    4956     4984     4991     4999     5004     5012     5014     5017 
    5031     5036     5059     5084     5086     5111     5117     5119 
    5124     5149     5152     5183     5187     5197     5205     5212 
    5227     5257     5262     5265     5266     5268     5273     5278 
    5281     5283     5289     5290     5299     5308     5312     5325 
    5348     5363     5375     5382     5386     5390     5402     5405 
    5407     5428     5447     5456     5460     5465     5468     5470 
    5479     5491     5499     5518     5522     5527     5528     5532 
    5539     5559     5580     5585     5620     5637     5651     5656 
    5668     5686     5693     5700     5710     5713     5719     5725 
    5736     5739     5740     5754     5756     5758     5766     5769 
    5782     5794     5813     5815     5835     5836     5843     5854 
    5869     5883     5890     5892     5893     5897     5905     5911 
    5928     5967     5972     6011     6015     6035     6038     6040 
    6054     6062     6090     6097     6108     6109     6110     6115 
    6120     6122     6123     6144     6150     6152     6155     6187 
    6201     6220     6224     6267     6275     6276     6279     6293 
    6299     6335     6370     6373     6381     6386     6390     6402 
    6405     6408     6419     6425     6438     6439     6450     6463 
    6493     6497     6508     6511     6529     6535     6542     6543 
    6544     6547     6558     6562     6570     6586     6593     6621 
    6627     6629     6631     6642     6653     6664     6667     6674 
    6679     6686     6696     6715     6726     6731     6733     6739 
    6740     6746     6747     6761     6768     6778     6780     6783 
    6795     6798     6809     6830     6831     6835     6836     6861 
    6863     6871     6879     6880     6881     6909     6920     6922 
    6946     6947     6950     6951     6967     6976     6984     6985 
    6996     6997     6998     7009     7010     7014     7017     7026 
    7033     7040     7046     7068     7069     7071     7074     7085 
    7091     7095     7098     7109     7126     7130     7133     7172 
    7216     7219     7227     7236     7243     7245     7257     7260 
    7265     7275     7276     7302     7306     7307     7309     7311 
    7321     7325     7340     7370     7375     7380     7385     7399 
    7422     7425     7430     7459     7463     7470     7489     7510 
    7526     7528     7536     7551     7552     7603     7623     7639 
    7643     7648     7672     7685     7698     7700     7716     7722 
    7734     7750     7758     7781     7782     7784     7786     7787 
    7788     7790     7816     7820     7821     7825     7841     7843 
    7844     7852     7859     7867     7870     7880     7884     7894 
    7906     7950     7977     7981     8017     8040     8046     8063 
    8113     8120     8132     8133     8157     8186     8191     8214 
    8227     8249     8253     8254     8265     8282     8285     8288 
    8302     8326     8331     8340     8341     8344     8346     8357 
    8366     8388     8392     8421     8425     8447     8469     8473 
    8489     8508     8509     8510     8517     8522     8525     8546 
    8584     8597     8609     8613     8615     8646     8648     8654 
    8665     8676     8696     8705     8713     8719     8731     8732 
    8736     8751     8753     8764     8769     8770     8773     8774 
    8777     8785     8793     8804     8816     8817     8818     8825 
    8840     8844     8854     8856     8868     8918     8920     8924 
    8925     8930     8962     8968     8971     8983     8993     9027 
    9044     9053     9058     9063     9066     9080     9087     9088 
    9096     9118     9120     9129     9134     9137     9142     9163 
    9166     9179     9188     9212     9219     9224     9235     9253 
    9261     9269     9272     9274     9294     9309     9322     9328 
    9330     9345     9355     9358     9363     9374     9390     9398 
    9400     9408     9419     9430     9440     9455     9459     9505 
    9514     9520     9524     9528     9565     9571     9578     9581 
    9588     9601     9625     9632     9640     9642     9644     9645 
    9651     9661     9668     9672     9681     9691     9715     9725 
    9732     9734     9742     9773     9783     9792     9793     9816 
    9831     9837     9872     9907     9910     9913     9946     9952 
    9953     9954     9955     9956     9957     9958     9959     9960 
    9961     9962     9963     9964     9965     9966     9967     9968 
    9969     9970     9971     9972     9973     9974     9975     9976 
    9977     9978     9979     9980     9981     9982     9983     9984 
    9985     9986     9987     9988     9989     9990     9991     9992 
    9993     9994     9995     9996     9997     9998     9999    10000 
 
 ----------------------------------------------------------------------
                            Training process                           
 ----------------------------------------------------------------------
 
 Weight optimization for 1000 epochs using the Limited Memory BFGS method.
 
        |------------TRAIN-----------|  |------------TEST------------|
 epoch             MAE          <RMSE>             MAE          <RMSE>
     0    1.202770E-01    8.791586E-02    1.192315E-01    8.678969E-02 <
     1    1.202770E-01    8.791586E-02    1.192315E-01    8.678969E-02 <
     2    2.531782E-01    2.108006E-01    2.584907E-01    2.143251E-01 <
     3    5.610852E-02    4.981462E-02    5.392997E-02    4.731148E-02 <
     4    3.595388E-02    3.834170E-02    3.367190E-02    3.412651E-02 <
     5    2.530458E-02    3.550943E-02    2.319862E-02    3.045098E-02 <
     6    2.217805E-02    3.446770E-02    2.013547E-02    2.938727E-02 <
     7    1.956407E-02    3.001624E-02    1.781254E-02    2.568143E-02 <
     8    2.160481E-02    2.734511E-02    1.990463E-02    2.361332E-02 <
     9    2.257639E-02    2.652165E-02    2.092283E-02    2.318503E-02 <
    10    2.200056E-02    2.562480E-02    2.043906E-02    2.244609E-02 <
    11    2.028116E-02    2.326034E-02    1.894514E-02    2.023702E-02 <
    12    1.768017E-02    2.228957E-02    1.621913E-02    1.908434E-02 <
    13    1.615023E-02    2.184496E-02    1.456552E-02    1.840083E-02 <
    14    1.537473E-02    2.142142E-02    1.375895E-02    1.794494E-02 <
    15    1.286775E-02    1.943078E-02    1.143777E-02    1.604573E-02 <
    16    1.274371E-02    1.830601E-02    1.140514E-02    1.519748E-02 <
    17    1.364097E-02    1.738302E-02    1.253536E-02    1.472923E-02 <
    18    1.387641E-02    1.680904E-02    1.272372E-02    1.452438E-02 <
    19    1.403105E-02    1.622649E-02    1.292374E-02    1.421323E-02 <
    20    1.307987E-02    1.438082E-02    1.209390E-02    1.268215E-02 <
    21    1.214865E-02    1.363930E-02    1.122214E-02    1.209340E-02 <
    22    1.168128E-02    1.320507E-02    1.094114E-02    1.189804E-02 <
    23    1.074380E-02    1.223787E-02    9.942353E-03    1.098519E-02 <
    24    9.743344E-03    1.113166E-02    8.988534E-03    9.948837E-03 <
    25    8.504263E-03    9.205505E-03    7.857747E-03    8.131849E-03 <
    26    7.946590E-03    8.684048E-03    7.612642E-03    7.869198E-03 <
    27    7.121066E-03    8.052301E-03    6.734443E-03    7.282769E-03 <
    28    6.969463E-03    7.905392E-03    6.422928E-03    6.976801E-03 <
    29    6.793682E-03    7.731290E-03    6.335160E-03    6.878410E-03 <
    30    6.390380E-03    7.310480E-03    6.066608E-03    6.544351E-03 <
    31    6.075477E-03    6.911339E-03    5.721749E-03    6.160516E-03 <
    32    5.953779E-03    6.491734E-03    5.440239E-03    5.626407E-03 <
    33    5.651725E-03    6.302699E-03    5.341849E-03    5.730579E-03 <
    34    5.589408E-03    6.215242E-03    5.217723E-03    5.557220E-03 <
    35    5.629015E-03    6.189128E-03    5.251903E-03    5.529572E-03 <
    36    5.605082E-03    6.156848E-03    5.249099E-03    5.517425E-03 <
    37    5.503793E-03    6.039850E-03    5.236397E-03    5.479582E-03 <
    38    5.382208E-03    5.950763E-03    5.159282E-03    5.406401E-03 <
    39    5.222081E-03    5.824564E-03    5.024792E-03    5.300690E-03 <
    40    5.114378E-03    5.699679E-03    4.917457E-03    5.166679E-03 <
    41    4.995283E-03    5.594988E-03    4.792724E-03    5.101810E-03 <
    42    4.849728E-03    5.462342E-03    4.647161E-03    5.000358E-03 <
    43    4.775473E-03    5.307259E-03    4.618148E-03    4.925718E-03 <
    44    4.549014E-03    5.183595E-03    4.346526E-03    4.656415E-03 <
    45    4.658120E-03    4.978217E-03    4.664391E-03    4.755212E-03 <
    46    4.507139E-03    4.895199E-03    4.424420E-03    4.569819E-03 <
    47    4.458622E-03    4.872100E-03    4.361346E-03    4.526566E-03 <
    48    4.396604E-03    4.819010E-03    4.293390E-03    4.476041E-03 <
    49    4.292105E-03    4.733824E-03    4.253871E-03    4.459132E-03 <
    50    4.251693E-03    4.665487E-03    4.217793E-03    4.416524E-03 <
    51    4.157489E-03    4.501834E-03    4.192694E-03    4.346661E-03 <
    52    4.050453E-03    4.413732E-03    4.090940E-03    4.316002E-03 <
    53    3.955692E-03    4.332181E-03    4.013738E-03    4.250851E-03 <
    54    3.882618E-03    4.246600E-03    3.920349E-03    4.146601E-03 <
    55    3.816829E-03    4.174461E-03    3.832612E-03    4.080625E-03 <
    56    3.742091E-03    4.110077E-03    3.754212E-03    4.024265E-03 <
    57    3.818149E-03    4.110590E-03    3.865430E-03    4.133590E-03 <
    58    3.717796E-03    4.050943E-03    3.737227E-03    4.030295E-03 <
    59    3.613791E-03    3.978807E-03    3.656099E-03    4.005233E-03 <
    60    3.568949E-03    3.937598E-03    3.598263E-03    3.942293E-03 <
    61    3.471169E-03    3.856160E-03    3.490215E-03    3.820820E-03 <
    62    3.529500E-03    3.846051E-03    3.471753E-03    3.587812E-03 <
    63    3.422370E-03    3.728920E-03    3.377755E-03    3.553684E-03 <
    64    3.400268E-03    3.696852E-03    3.368200E-03    3.560414E-03 <
    65    3.398721E-03    3.670267E-03    3.363052E-03    3.530286E-03 <
    66    3.380880E-03    3.620772E-03    3.328365E-03    3.452791E-03 <
    67    3.311180E-03    3.514703E-03    3.248465E-03    3.309105E-03 <
    68    3.232982E-03    3.422177E-03    3.163048E-03    3.175786E-03 <
    69    3.191120E-03    3.356677E-03    3.074921E-03    3.051893E-03 <
    70    3.179324E-03    3.361240E-03    3.180717E-03    3.156279E-03 <
    71    3.110075E-03    3.268684E-03    3.054391E-03    3.016296E-03 <
    72    3.007771E-03    3.224223E-03    2.947334E-03    2.919846E-03 <
    73    2.921249E-03    3.172893E-03    2.900890E-03    2.901863E-03 <
    74    2.882314E-03    3.138959E-03    2.858640E-03    2.864021E-03 <
    75    2.838500E-03    3.122966E-03    2.815914E-03    2.840846E-03 <
    76    2.822787E-03    3.107701E-03    2.796957E-03    2.811719E-03 <
    77    2.799178E-03    3.090619E-03    2.772501E-03    2.802762E-03 <
    78    2.781895E-03    3.079396E-03    2.751177E-03    2.799838E-03 <
    79    2.747872E-03    3.059754E-03    2.717959E-03    2.791766E-03 <
    80    2.705504E-03    3.030953E-03    2.685344E-03    2.783543E-03 <
    81    2.649384E-03    2.993631E-03    2.659027E-03    2.781296E-03 <
    82    2.782235E-03    3.026416E-03    2.762122E-03    2.847077E-03 <
    83    2.636443E-03    2.970580E-03    2.633628E-03    2.772628E-03 <
    84    2.610058E-03    2.936763E-03    2.618256E-03    2.740736E-03 <
    85    2.608114E-03    2.890761E-03    2.624201E-03    2.690432E-03 <
    86    2.606716E-03    2.865992E-03    2.621672E-03    2.658557E-03 <
    87    2.590106E-03    2.835651E-03    2.606730E-03    2.622883E-03 <
    88    2.599328E-03    2.821517E-03    2.606958E-03    2.627917E-03 <
    89    2.570677E-03    2.806823E-03    2.585620E-03    2.626659E-03 <
    90    2.541324E-03    2.795640E-03    2.568531E-03    2.638899E-03 <
    91    2.503077E-03    2.772760E-03    2.534700E-03    2.637797E-03 <
    92    2.482021E-03    2.763873E-03    2.520199E-03    2.639937E-03 <
    93    2.463854E-03    2.752502E-03    2.506318E-03    2.630461E-03 <
    94    2.439575E-03    2.724751E-03    2.487536E-03    2.603810E-03 <
    95    2.431065E-03    2.667674E-03    2.484855E-03    2.558530E-03 <
    96    3.380772E-03    3.198422E-03    3.261488E-03    2.963669E-03 <
    97    2.422105E-03    2.660732E-03    2.463973E-03    2.536939E-03 <
    98    2.436118E-03    2.624983E-03    2.468467E-03    2.510355E-03 <
    99    2.446676E-03    2.628047E-03    2.461852E-03    2.515212E-03 <
   100    2.423447E-03    2.607885E-03    2.450631E-03    2.493057E-03 <
   101    2.414025E-03    2.585177E-03    2.428373E-03    2.486045E-03 <
   102    2.408057E-03    2.573046E-03    2.419920E-03    2.476738E-03 <
   103    2.383863E-03    2.547236E-03    2.384824E-03    2.450917E-03 <
   104    2.357264E-03    2.506910E-03    2.361379E-03    2.418509E-03 <
   105    2.313712E-03    2.459946E-03    2.322057E-03    2.374688E-03 <
   106    2.533506E-03    2.615787E-03    2.523597E-03    2.642890E-03 <
   107    2.291649E-03    2.441761E-03    2.299022E-03    2.387488E-03 <
   108    2.258210E-03    2.399447E-03    2.280147E-03    2.355231E-03 <
   109    2.196734E-03    2.359703E-03    2.227167E-03    2.355689E-03 <
   110    2.200284E-03    2.340976E-03    2.241605E-03    2.332557E-03 <
   111    2.184063E-03    2.332187E-03    2.229752E-03    2.343201E-03 <
   112    2.178279E-03    2.326190E-03    2.221665E-03    2.335854E-03 <
   113    2.166363E-03    2.320282E-03    2.205816E-03    2.325362E-03 <
   114    2.140831E-03    2.304923E-03    2.173226E-03    2.294002E-03 <
   115    2.115627E-03    2.283185E-03    2.140434E-03    2.248415E-03 <
   116    2.075697E-03    2.238477E-03    2.090439E-03    2.164893E-03 <
   117    2.368616E-03    2.488774E-03    2.316177E-03    2.282248E-03 <
   118    2.041544E-03    2.218845E-03    2.043923E-03    2.120958E-03 <
   119    2.005200E-03    2.175787E-03    1.999892E-03    2.061120E-03 <
   120    1.982465E-03    2.145731E-03    1.977865E-03    2.037571E-03 <
   121    1.973328E-03    2.135184E-03    1.967855E-03    2.030535E-03 <
   122    1.966963E-03    2.127885E-03    1.961392E-03    2.030770E-03 <
   123    1.957574E-03    2.118414E-03    1.944958E-03    2.021702E-03 <
   124    1.948644E-03    2.108384E-03    1.929365E-03    2.012374E-03 <
   125    1.941674E-03    2.098209E-03    1.917697E-03    1.994591E-03 <
   126    1.953096E-03    2.093130E-03    1.925032E-03    1.999558E-03 <
   127    1.943505E-03    2.082646E-03    1.918280E-03    1.983899E-03 <
   128    1.928054E-03    2.071467E-03    1.900951E-03    1.966097E-03 <
   129    1.909761E-03    2.052499E-03    1.884624E-03    1.951598E-03 <
   130    1.889838E-03    2.027736E-03    1.867268E-03    1.946218E-03 <
   131    2.093550E-03    2.093660E-03    2.085334E-03    2.075572E-03 <
   132    1.912626E-03    2.018799E-03    1.892248E-03    1.955679E-03 <
   133    1.903925E-03    2.002884E-03    1.889769E-03    1.966042E-03 <
   134    1.898634E-03    1.993665E-03    1.892173E-03    1.984197E-03 <
   135    1.900761E-03    1.988114E-03    1.901205E-03    1.991039E-03 <
   136    1.896851E-03    1.984566E-03    1.899867E-03    2.001460E-03 <
   137    1.887632E-03    1.975180E-03    1.898693E-03    2.005886E-03 <
   138    1.845753E-03    1.957448E-03    1.866083E-03    2.044261E-03 <
   139    1.829604E-03    1.939481E-03    1.855608E-03    2.030146E-03 <
   140    1.794789E-03    1.904874E-03    1.822811E-03    2.005859E-03 <
   141    1.761173E-03    1.866256E-03    1.780696E-03    1.973979E-03 <
   142    1.773785E-03    1.862814E-03    1.814785E-03    1.992648E-03 <
   143    1.754505E-03    1.848278E-03    1.775757E-03    1.967334E-03 <
   144    1.749217E-03    1.844675E-03    1.766995E-03    1.962792E-03 <
   145    1.745703E-03    1.839759E-03    1.760872E-03    1.955050E-03 <
   146    1.739903E-03    1.832646E-03    1.754664E-03    1.942273E-03 <
   147    1.734927E-03    1.825564E-03    1.752523E-03    1.930712E-03 <
   148    1.725198E-03    1.812074E-03    1.750294E-03    1.913796E-03 <
   149    1.884746E-03    1.985570E-03    1.898633E-03    2.059687E-03 <
   150    1.714794E-03    1.802020E-03    1.743636E-03    1.901191E-03 <
   151    1.698252E-03    1.780237E-03    1.745074E-03    1.885914E-03 <
   152    1.713212E-03    1.779076E-03    1.762671E-03    1.899797E-03 <
   153    1.697621E-03    1.771662E-03    1.746801E-03    1.886753E-03 <
   154    1.679288E-03    1.756079E-03    1.747504E-03    1.883559E-03 <
   155    1.684721E-03    1.770293E-03    1.758852E-03    1.871482E-03 <
   156    1.670527E-03    1.752073E-03    1.742431E-03    1.872793E-03 <
   157    1.664893E-03    1.740371E-03    1.723791E-03    1.849782E-03 <
   158    1.665375E-03    1.734589E-03    1.717157E-03    1.842192E-03 <
   159    1.674717E-03    1.727189E-03    1.733854E-03    1.843291E-03 <
   160    1.667977E-03    1.724560E-03    1.704413E-03    1.817517E-03 <
   161    1.657680E-03    1.710601E-03    1.703800E-03    1.813814E-03 <
   162    1.646796E-03    1.697850E-03    1.704702E-03    1.812007E-03 <
   163    1.624755E-03    1.673758E-03    1.694322E-03    1.796860E-03 <
   164    1.588561E-03    1.639175E-03    1.653152E-03    1.736871E-03 <
   165    1.573566E-03    1.676771E-03    1.646627E-03    1.831565E-03 <
   166    1.561326E-03    1.628118E-03    1.633601E-03    1.748905E-03 <
   167    1.549722E-03    1.618705E-03    1.617023E-03    1.730520E-03 <
   168    1.550844E-03    1.615922E-03    1.618784E-03    1.719345E-03 <
   169    1.547021E-03    1.614167E-03    1.607844E-03    1.710121E-03 <
   170    1.545374E-03    1.611858E-03    1.609148E-03    1.713870E-03 <
   171    1.541289E-03    1.606381E-03    1.608435E-03    1.716329E-03 <
   172    1.534531E-03    1.598904E-03    1.606201E-03    1.715414E-03 <
   173    1.571674E-03    1.621116E-03    1.624627E-03    1.743198E-03 <
   174    1.532892E-03    1.592990E-03    1.602615E-03    1.715896E-03 <
   175    1.518213E-03    1.579593E-03    1.590285E-03    1.707484E-03 <
   176    1.495155E-03    1.564335E-03    1.572053E-03    1.698057E-03 <
   177    1.489606E-03    1.558390E-03    1.566080E-03    1.698164E-03 <
   178    1.480482E-03    1.552540E-03    1.548911E-03    1.695434E-03 <
   179    1.476779E-03    1.545710E-03    1.548742E-03    1.692294E-03 <
   180    1.475474E-03    1.540476E-03    1.549605E-03    1.691543E-03 <
   181    1.474366E-03    1.532087E-03    1.546451E-03    1.681968E-03 <
   182    1.473317E-03    1.524545E-03    1.547990E-03    1.673846E-03 <
   183    1.475616E-03    1.519185E-03    1.543674E-03    1.655514E-03 <
   184    1.465812E-03    1.511441E-03    1.531896E-03    1.642429E-03 <
   185    1.453107E-03    1.501211E-03    1.515293E-03    1.621238E-03 <
   186    1.442132E-03    1.492653E-03    1.502180E-03    1.603570E-03 <
   187    1.434071E-03    1.480881E-03    1.498345E-03    1.591068E-03 <
   188    1.424712E-03    1.475034E-03    1.491592E-03    1.586085E-03 <
   189    1.423835E-03    1.471264E-03    1.490002E-03    1.577652E-03 <
   190    1.420961E-03    1.465944E-03    1.482590E-03    1.566213E-03 <
   191    1.423137E-03    1.458042E-03    1.483541E-03    1.549150E-03 <
   192    1.416753E-03    1.452950E-03    1.454071E-03    1.524444E-03 <
   193    1.413496E-03    1.445024E-03    1.464059E-03    1.530318E-03 <
   194    1.412102E-03    1.440978E-03    1.470006E-03    1.538439E-03 <
   195    1.409804E-03    1.438415E-03    1.469480E-03    1.543015E-03 <
   196    1.404681E-03    1.434877E-03    1.463659E-03    1.546522E-03 <
   197    1.398927E-03    1.429476E-03    1.453695E-03    1.543904E-03 <
   198    1.400718E-03    1.428813E-03    1.448829E-03    1.540798E-03 <
   199    1.396672E-03    1.425910E-03    1.448316E-03    1.539559E-03 <
   200    1.393517E-03    1.419750E-03    1.436707E-03    1.530374E-03 <
   201    1.393292E-03    1.416781E-03    1.436852E-03    1.525560E-03 <
   202    1.394468E-03    1.413036E-03    1.436398E-03    1.516045E-03 <
   203    1.397873E-03    1.407313E-03    1.439889E-03    1.512240E-03 <
   204    1.423500E-03    1.410442E-03    1.454187E-03    1.495034E-03 <
   205    1.400753E-03    1.400819E-03    1.438294E-03    1.498098E-03 <
   206    1.399270E-03    1.393818E-03    1.426364E-03    1.479415E-03 <
   207    1.390118E-03    1.386959E-03    1.415642E-03    1.471084E-03 <
   208    1.377275E-03    1.379412E-03    1.402391E-03    1.460631E-03 <
   209    1.363437E-03    1.371437E-03    1.391185E-03    1.451399E-03 <
   210    1.496513E-03    1.529638E-03    1.483726E-03    1.494970E-03 <
   211    1.358809E-03    1.368187E-03    1.382708E-03    1.437361E-03 <
   212    1.342367E-03    1.369893E-03    1.383588E-03    1.434873E-03 <
   213    1.345642E-03    1.363706E-03    1.379958E-03    1.432293E-03 <
   214    1.336338E-03    1.355329E-03    1.372503E-03    1.422627E-03 <
   215    1.334009E-03    1.352620E-03    1.367695E-03    1.412614E-03 <
   216    1.328441E-03    1.349343E-03    1.362481E-03    1.407528E-03 <
   217    1.322872E-03    1.344239E-03    1.357716E-03    1.401044E-03 <
   218    1.368735E-03    1.388239E-03    1.387172E-03    1.420602E-03 <
   219    1.314460E-03    1.340842E-03    1.343967E-03    1.393569E-03 <
   220    1.306710E-03    1.330551E-03    1.338262E-03    1.384193E-03 <
   221    1.300599E-03    1.315097E-03    1.334022E-03    1.374605E-03 <
   222    1.297444E-03    1.302524E-03    1.329586E-03    1.353007E-03 <
   223    1.296449E-03    1.297733E-03    1.333164E-03    1.355377E-03 <
   224    1.294562E-03    1.294227E-03    1.336496E-03    1.350331E-03 <
   225    1.290277E-03    1.291338E-03    1.337693E-03    1.350552E-03 <
   226    1.284792E-03    1.289631E-03    1.331670E-03    1.346306E-03 <
   227    1.269126E-03    1.282714E-03    1.312852E-03    1.334030E-03 <
   228    1.255636E-03    1.276273E-03    1.301759E-03    1.323582E-03 <
   229    1.230142E-03    1.267889E-03    1.277924E-03    1.311105E-03 <
   230    1.221896E-03    1.258776E-03    1.275276E-03    1.305432E-03 <
   231    1.212276E-03    1.249174E-03    1.271394E-03    1.298127E-03 <
   232    1.210434E-03    1.244075E-03    1.276017E-03    1.281390E-03 <
   233    1.202467E-03    1.238552E-03    1.264334E-03    1.272697E-03 <
   234    1.198251E-03    1.233747E-03    1.254758E-03    1.261932E-03 <
   235    1.197912E-03    1.229918E-03    1.252876E-03    1.254553E-03 <
   236    1.195427E-03    1.228702E-03    1.252913E-03    1.259861E-03 <
   237    1.197291E-03    1.223586E-03    1.258781E-03    1.253579E-03 <
   238    1.192410E-03    1.220597E-03    1.252698E-03    1.247515E-03 <
   239    1.184255E-03    1.214740E-03    1.242455E-03    1.238409E-03 <
   240    1.180412E-03    1.211541E-03    1.238568E-03    1.237427E-03 <
   241    1.496172E-03    1.504771E-03    1.538802E-03    1.479088E-03 <
   242    1.176599E-03    1.210851E-03    1.235314E-03    1.235841E-03 <
   243    1.171627E-03    1.205920E-03    1.231595E-03    1.237053E-03 <
   244    1.167651E-03    1.201701E-03    1.231063E-03    1.241191E-03 <
   245    1.162165E-03    1.195957E-03    1.223937E-03    1.236577E-03 <
   246    1.153359E-03    1.188020E-03    1.210790E-03    1.227888E-03 <
   247    1.171431E-03    1.190745E-03    1.224172E-03    1.220805E-03 <
   248    1.155037E-03    1.183238E-03    1.209767E-03    1.218980E-03 <
   249    1.144266E-03    1.172544E-03    1.194512E-03    1.203792E-03 <
   250    1.131968E-03    1.160007E-03    1.176121E-03    1.184206E-03 <
   251    1.123140E-03    1.152712E-03    1.168161E-03    1.176660E-03 <
   252    1.117017E-03    1.144904E-03    1.162104E-03    1.172661E-03 <
   253    1.142603E-03    1.180504E-03    1.158283E-03    1.186036E-03 <
   254    1.113374E-03    1.143489E-03    1.154988E-03    1.167656E-03 <
   255    1.113574E-03    1.139537E-03    1.154719E-03    1.170094E-03 <
   256    1.110763E-03    1.136083E-03    1.148317E-03    1.159560E-03 <
   257    1.161456E-03    1.178408E-03    1.169753E-03    1.182846E-03 <
   258    1.110154E-03    1.134466E-03    1.143240E-03    1.156646E-03 <
   259    1.108444E-03    1.132015E-03    1.141984E-03    1.152348E-03 <
   260    1.104944E-03    1.129940E-03    1.139479E-03    1.149769E-03 <
   261    1.102684E-03    1.128562E-03    1.136996E-03    1.148034E-03 <
   262    1.099769E-03    1.126049E-03    1.133052E-03    1.144632E-03 <
   263    1.097247E-03    1.122914E-03    1.129206E-03    1.140793E-03 <
   264    1.107823E-03    1.132040E-03    1.130035E-03    1.154566E-03 <
   265    1.096659E-03    1.121265E-03    1.126689E-03    1.140964E-03 <
   266    1.092273E-03    1.113322E-03    1.119208E-03    1.130846E-03 <
   267    1.086086E-03    1.105590E-03    1.111334E-03    1.125023E-03 <
   268    1.094052E-03    1.101391E-03    1.118773E-03    1.133928E-03 <
   269    1.077462E-03    1.093291E-03    1.100009E-03    1.122108E-03 <
   270    1.071935E-03    1.089534E-03    1.097100E-03    1.120752E-03 <
   271    1.058188E-03    1.081393E-03    1.085534E-03    1.118318E-03 <
   272    1.065049E-03    1.086064E-03    1.101512E-03    1.120982E-03 <
   273    1.056633E-03    1.079909E-03    1.086229E-03    1.116263E-03 <
   274    1.055442E-03    1.076998E-03    1.085694E-03    1.119825E-03 <
   275    1.053991E-03    1.074817E-03    1.081660E-03    1.121023E-03 <
   276    1.050789E-03    1.071140E-03    1.081685E-03    1.124259E-03 <
   277    1.044662E-03    1.067036E-03    1.073936E-03    1.120620E-03 <
   278    1.039350E-03    1.062819E-03    1.066908E-03    1.115116E-03 <
   279    1.040507E-03    1.064883E-03    1.062958E-03    1.112817E-03 <
   280    1.036818E-03    1.061294E-03    1.062024E-03    1.112061E-03 <
   281    1.035734E-03    1.058730E-03    1.059915E-03    1.107431E-03 <
   282    1.040626E-03    1.057329E-03    1.067195E-03    1.104468E-03 <
   283    1.036569E-03    1.054340E-03    1.062139E-03    1.099357E-03 <
   284    1.034648E-03    1.052887E-03    1.060510E-03    1.097017E-03 <
   285    1.032378E-03    1.050784E-03    1.059165E-03    1.093580E-03 <
   286    1.029757E-03    1.058845E-03    1.045808E-03    1.088475E-03 <
   287    1.027611E-03    1.049120E-03    1.052043E-03    1.088306E-03 <
   288    1.021244E-03    1.041696E-03    1.045030E-03    1.073161E-03 <
   289    1.016035E-03    1.036590E-03    1.037136E-03    1.069154E-03 <
   290    1.020130E-03    1.033125E-03    1.040772E-03    1.057022E-03 <
   291    1.006984E-03    1.024426E-03    1.022978E-03    1.055536E-03 <
   292    1.001038E-03    1.017931E-03    1.013205E-03    1.049957E-03 <
   293    9.989410E-04    1.013697E-03    1.014567E-03    1.047466E-03 <
   294    9.967039E-04    1.009838E-03    1.008394E-03    1.039022E-03 <
   295    9.956500E-04    1.008735E-03    1.008589E-03    1.037695E-03 <
   296    9.942417E-04    1.007817E-03    1.007192E-03    1.036920E-03 <
   297    9.918455E-04    1.006276E-03    1.005227E-03    1.035458E-03 <
   298    9.885869E-04    1.004284E-03    1.003811E-03    1.036868E-03 <
   299    9.847682E-04    1.002149E-03    1.003177E-03    1.034743E-03 <
   300    9.805179E-04    9.997968E-04    1.002196E-03    1.040569E-03 <
   301    9.775154E-04    9.978458E-04    1.000783E-03    1.041348E-03 <
   302    9.752588E-04    9.963371E-04    1.000017E-03    1.041229E-03 <
   303    9.742647E-04    9.957317E-04    9.999380E-04    1.040693E-03 <
   304    9.728146E-04    9.944344E-04    1.000183E-03    1.039548E-03 <
   305    9.731765E-04    9.928856E-04    1.001934E-03    1.039191E-03 <
   306    9.753775E-04    9.932206E-04    1.005988E-03    1.039149E-03 <
   307    9.711110E-04    9.909607E-04    1.001540E-03    1.037334E-03 <
   308    9.700155E-04    9.888940E-04    9.988608E-04    1.035424E-03 <
   309    9.698310E-04    9.859982E-04    9.948300E-04    1.032699E-03 <
   310    9.692522E-04    9.851749E-04    9.937064E-04    1.031821E-03 <
   311    9.638140E-04    9.787373E-04    9.816972E-04    1.019790E-03 <
   312    9.609803E-04    9.738788E-04    9.795772E-04    1.014439E-03 <
   313    9.572055E-04    9.704340E-04    9.748449E-04    1.009489E-03 <
   314    9.574001E-04    9.693377E-04    9.752088E-04    1.009454E-03 <
   315    9.565734E-04    9.687652E-04    9.731212E-04    1.008581E-03 <
   316    9.563075E-04    9.677290E-04    9.720322E-04    1.007567E-03 <
   317    9.530447E-04    9.670853E-04    9.628547E-04    1.006356E-03 <
   318    9.533625E-04    9.650383E-04    9.656282E-04    1.005026E-03 <
   319    9.530609E-04    9.639396E-04    9.660812E-04    1.003702E-03 <
   320    9.518835E-04    9.631685E-04    9.651399E-04    1.002163E-03 <
   321    9.500703E-04    9.622808E-04    9.633954E-04    9.992327E-04 <
   322    9.448773E-04    9.605411E-04    9.597447E-04    9.941316E-04 <
   323    1.065656E-03    1.111064E-03    1.053125E-03    1.074646E-03 <
   324    9.438603E-04    9.600886E-04    9.568271E-04    9.896072E-04 <
   325    9.414484E-04    9.591524E-04    9.552146E-04    9.863833E-04 <
   326    9.387756E-04    9.576140E-04    9.528603E-04    9.809373E-04 <
   327    9.366865E-04    9.559445E-04    9.520777E-04    9.763384E-04 <
   328    9.351373E-04    9.540444E-04    9.496067E-04    9.696347E-04 <
   329    9.334815E-04    9.527742E-04    9.504823E-04    9.657319E-04 <
   330    9.324122E-04    9.509097E-04    9.499341E-04    9.655923E-04 <
   331    9.315384E-04    9.495688E-04    9.488060E-04    9.672303E-04 <
   332    9.309851E-04    9.473301E-04    9.526490E-04    9.701335E-04 <
   333    9.318140E-04    9.473565E-04    9.534016E-04    9.695443E-04 <
   334    9.304461E-04    9.461947E-04    9.519118E-04    9.690087E-04 <
   335    9.293023E-04    9.448975E-04    9.545375E-04    9.730047E-04 <
   336    9.287753E-04    9.441826E-04    9.540469E-04    9.707948E-04 <
   337    9.282457E-04    9.432676E-04    9.527849E-04    9.678569E-04 <
   338    9.282990E-04    9.425785E-04    9.529574E-04    9.665057E-04 <
   339    9.278770E-04    9.412284E-04    9.526744E-04    9.651009E-04 <
   340    9.287601E-04    9.397277E-04    9.542009E-04    9.655553E-04 <
   341    9.309121E-04    9.390780E-04    9.600942E-04    9.688037E-04 <
   342    9.286719E-04    9.377963E-04    9.551346E-04    9.675581E-04 <
   343    9.273300E-04    9.373382E-04    9.536498E-04    9.670902E-04 <
   344    9.261400E-04    9.368608E-04    9.525952E-04    9.662846E-04 <
   345    9.253537E-04    9.363507E-04    9.523554E-04    9.650628E-04 <
   346    9.281897E-04    9.391298E-04    9.484246E-04    9.589182E-04 <
   347    9.251800E-04    9.362156E-04    9.511435E-04    9.633454E-04 <
   348    9.247918E-04    9.356699E-04    9.521540E-04    9.630198E-04 <
   349    9.246840E-04    9.352047E-04    9.529108E-04    9.631490E-04 <
   350    9.246233E-04    9.344105E-04    9.536169E-04    9.638058E-04 <
   351    9.242686E-04    9.334062E-04    9.537630E-04    9.649597E-04 <
   352    9.227875E-04    9.320403E-04    9.539517E-04    9.669109E-04 <
   353    9.478604E-04    9.492887E-04    9.761815E-04    9.955899E-04 <
   354    9.234375E-04    9.317694E-04    9.550525E-04    9.682451E-04 <
   355    9.212262E-04    9.307379E-04    9.536572E-04    9.696175E-04 <
   356    9.194823E-04    9.300186E-04    9.522915E-04    9.707277E-04 <
   357    9.186489E-04    9.296612E-04    9.514490E-04    9.713418E-04 <
   358    9.177537E-04    9.291828E-04    9.508602E-04    9.724220E-04 <
   359    9.164529E-04    9.283288E-04    9.499033E-04    9.737659E-04 <
   360    9.144201E-04    9.265394E-04    9.494522E-04    9.750961E-04 <
   361    9.143262E-04    9.249778E-04    9.554087E-04    9.811907E-04 <
   362    9.161014E-04    9.268714E-04    9.523485E-04    9.729058E-04 <
   363    9.133445E-04    9.238169E-04    9.531175E-04    9.766616E-04 <
   364    9.127160E-04    9.226269E-04    9.527661E-04    9.743620E-04 <
   365    9.123250E-04    9.214661E-04    9.524553E-04    9.704505E-04 <
   366    9.410033E-04    9.355015E-04    9.969378E-04    9.935337E-04 <
   367    9.131506E-04    9.212076E-04    9.552924E-04    9.713650E-04 <
   368    9.130278E-04    9.203771E-04    9.553483E-04    9.691237E-04 <
   369    9.123548E-04    9.174493E-04    9.571169E-04    9.617246E-04 <
   370    9.115788E-04    9.166168E-04    9.562131E-04    9.593017E-04 <
   371    1.133004E-03    1.086009E-03    1.152856E-03    1.099288E-03 <
   372    9.115850E-04    9.165150E-04    9.560401E-04    9.585525E-04 <
   373    9.108890E-04    9.161370E-04    9.553114E-04    9.580609E-04 <
   374    9.168965E-04    9.211619E-04    9.689627E-04    9.668491E-04 <
   375    9.109968E-04    9.157246E-04    9.574449E-04    9.587559E-04 <
   376    9.089805E-04    9.148144E-04    9.539928E-04    9.564399E-04 <
   377    9.064149E-04    9.141394E-04    9.486686E-04    9.524055E-04 <
   378    9.053420E-04    9.128566E-04    9.478614E-04    9.512407E-04 <
   379    9.043809E-04    9.121613E-04    9.463065E-04    9.499386E-04 <
   380    9.028272E-04    9.108847E-04    9.426500E-04    9.467895E-04 <
   381    9.000548E-04    9.114734E-04    9.389253E-04    9.456424E-04 <
   382    9.010506E-04    9.104029E-04    9.403437E-04    9.456568E-04 <
   383    8.995990E-04    9.093845E-04    9.375754E-04    9.428387E-04 <
   384    8.959278E-04    9.068899E-04    9.325735E-04    9.359722E-04 <
   385    8.944621E-04    9.053505E-04    9.299817E-04    9.326751E-04 <
   386    8.932535E-04    9.038518E-04    9.287781E-04    9.303693E-04 <
   387    8.899119E-04    9.010817E-04    9.234553E-04    9.259209E-04 <
   388    8.845571E-04    8.969493E-04    9.148529E-04    9.176249E-04 <
   389    8.978563E-04    9.237327E-04    9.323006E-04    9.725391E-04 <
   390    8.810334E-04    8.947486E-04    9.138857E-04    9.227632E-04 <
   391    8.759239E-04    8.907535E-04    9.099345E-04    9.192401E-04 <
   392    8.725964E-04    8.885663E-04    9.060576E-04    9.152279E-04 <
   393    8.822084E-04    8.925030E-04    9.221843E-04    9.256613E-04 <
   394    8.729593E-04    8.880527E-04    9.084040E-04    9.164799E-04 <
   395    8.728059E-04    8.877950E-04    9.086990E-04    9.167641E-04 <
   396    8.726416E-04    8.875127E-04    9.085594E-04    9.164547E-04 <
   397    9.344728E-04    9.281476E-04    9.631699E-04    9.768045E-04 <
   398    8.722385E-04    8.872923E-04    9.089447E-04    9.177667E-04 <
   399    8.714266E-04    8.858328E-04    9.076756E-04    9.153844E-04 <
   400    8.687532E-04    8.834303E-04    9.024243E-04    9.108013E-04 <
   401    8.657544E-04    8.813759E-04    8.991314E-04    9.074225E-04 <
   402    8.636371E-04    8.803774E-04    8.956212E-04    9.056520E-04 <
   403    8.626608E-04    8.793409E-04    8.940011E-04    9.044261E-04 <
   404    8.607303E-04    8.769770E-04    8.914224E-04    9.003379E-04 <
   405    8.757808E-04    8.789878E-04    9.013560E-04    8.994187E-04 <
   406    8.632637E-04    8.754638E-04    8.915949E-04    8.979207E-04 <
   407    8.609800E-04    8.732975E-04    8.896368E-04    8.939812E-04 <
   408    8.632527E-04    8.799964E-04    8.910126E-04    9.009494E-04 <
   409    8.598945E-04    8.730593E-04    8.891517E-04    8.939653E-04 <
   410    8.583164E-04    8.721956E-04    8.862999E-04    8.913291E-04 <
   411    8.568296E-04    8.714036E-04    8.841771E-04    8.892968E-04 <
   412    8.545094E-04    8.698025E-04    8.817892E-04    8.869867E-04 <
   413    8.524163E-04    8.674251E-04    8.809681E-04    8.861368E-04 <
   414    8.498652E-04    8.638203E-04    8.802273E-04    8.861041E-04 <
   415    8.894587E-04    9.044048E-04    9.293023E-04    9.512486E-04 <
   416    8.499036E-04    8.634832E-04    8.816109E-04    8.887776E-04 <
   417    8.498675E-04    8.614716E-04    8.813076E-04    8.894015E-04 <
   418    8.495502E-04    8.606461E-04    8.813038E-04    8.896399E-04 <
   419    8.498485E-04    8.602524E-04    8.830378E-04    8.907043E-04 <
   420    8.498688E-04    8.598455E-04    8.838024E-04    8.911012E-04 <
   421    8.573806E-04    8.622551E-04    8.949060E-04    8.986035E-04 <
   422    8.506490E-04    8.595477E-04    8.855788E-04    8.921146E-04 <
   423    8.505997E-04    8.588222E-04    8.853213E-04    8.913280E-04 <
   424    8.507021E-04    8.576550E-04    8.866856E-04    8.912807E-04 <
   425    8.529001E-04    8.563668E-04    8.845721E-04    8.863384E-04 <
   426    8.508934E-04    8.554536E-04    8.823815E-04    8.854200E-04 <
   427    8.492093E-04    8.542240E-04    8.795220E-04    8.837167E-04 <
   428    8.490618E-04    8.536884E-04    8.788056E-04    8.832043E-04 <
   429    8.490284E-04    8.527280E-04    8.780827E-04    8.823671E-04 <
   430    8.535050E-04    8.539620E-04    8.842640E-04    8.849068E-04 <
   431    8.496073E-04    8.521567E-04    8.791276E-04    8.825078E-04 <
   432    8.490255E-04    8.509209E-04    8.768857E-04    8.811582E-04 <
   433    8.477212E-04    8.497735E-04    8.747988E-04    8.799067E-04 <
   434    8.452416E-04    8.482713E-04    8.719061E-04    8.783321E-04 <
   435    8.841332E-04    8.887906E-04    8.877771E-04    9.058285E-04 <
   436    8.444857E-04    8.480582E-04    8.700392E-04    8.777252E-04 <
   437    8.420660E-04    8.470520E-04    8.679566E-04    8.771840E-04 <
   438    8.396760E-04    8.458723E-04    8.661006E-04    8.767891E-04 <
   439    8.364808E-04    8.443036E-04    8.640459E-04    8.768173E-04 <
   440    8.349180E-04    8.433959E-04    8.640509E-04    8.775372E-04 <
   441    8.343266E-04    8.426460E-04    8.631322E-04    8.768343E-04 <
   442    8.384087E-04    8.469149E-04    8.723586E-04    8.871048E-04 <
   443    8.332744E-04    8.420336E-04    8.643122E-04    8.780172E-04 <
   444    8.337605E-04    8.425175E-04    8.633904E-04    8.816320E-04 <
   445    8.328779E-04    8.417147E-04    8.635058E-04    8.790169E-04 <
   446    8.323337E-04    8.412476E-04    8.633244E-04    8.785326E-04 <
   447    8.329007E-04    8.405878E-04    8.648668E-04    8.793312E-04 <
   448    8.306564E-04    8.401308E-04    8.627647E-04    8.774154E-04 <
   449    8.305112E-04    8.398151E-04    8.621028E-04    8.771565E-04 <
   450    8.304053E-04    8.390721E-04    8.612152E-04    8.779870E-04 <
   451    8.329477E-04    8.388212E-04    8.617710E-04    8.760419E-04 <
   452    8.313919E-04    8.381768E-04    8.613420E-04    8.766217E-04 <
   453    8.304964E-04    8.374834E-04    8.613821E-04    8.773361E-04 <
   454    8.304470E-04    8.367395E-04    8.621064E-04    8.783384E-04 <
   455    8.304951E-04    8.365135E-04    8.641238E-04    8.804351E-04 <
   456    8.301204E-04    8.352485E-04    8.630433E-04    8.803173E-04 <
   457    8.301249E-04    8.347000E-04    8.626872E-04    8.802364E-04 <
   458    8.298993E-04    8.340708E-04    8.626770E-04    8.803112E-04 <
   459    8.295412E-04    8.335107E-04    8.633771E-04    8.808020E-04 <
   460    8.276818E-04    8.325246E-04    8.612078E-04    8.797271E-04 <
   461    8.253413E-04    8.314467E-04    8.592522E-04    8.792464E-04 <
   462    8.239612E-04    8.305901E-04    8.567962E-04    8.772684E-04 <
   463    8.235105E-04    8.303501E-04    8.565879E-04    8.775371E-04 <
   464    8.231475E-04    8.301341E-04    8.562084E-04    8.772778E-04 <
   465    8.212369E-04    8.291152E-04    8.554529E-04    8.771440E-04 <
   466    8.180890E-04    8.272939E-04    8.541294E-04    8.764071E-04 <
   467    8.235618E-04    8.333263E-04    8.545893E-04    8.817138E-04 <
   468    8.171554E-04    8.269290E-04    8.529543E-04    8.762389E-04 <
   469    8.153579E-04    8.255004E-04    8.530391E-04    8.752065E-04 <
   470    8.150465E-04    8.246933E-04    8.533360E-04    8.738474E-04 <
   471    8.381625E-04    8.370502E-04    8.839862E-04    8.930722E-04 <
   472    8.155040E-04    8.245295E-04    8.547583E-04    8.744924E-04 <
   473    8.154212E-04    8.239305E-04    8.543001E-04    8.726516E-04 <
   474    8.145796E-04    8.228480E-04    8.530658E-04    8.699051E-04 <
   475    8.131803E-04    8.218029E-04    8.516072E-04    8.677533E-04 <
   476    8.122677E-04    8.210507E-04    8.502736E-04    8.662239E-04 <
   477    8.104386E-04    8.202018E-04    8.494258E-04    8.658664E-04 <
   478    8.090784E-04    8.191000E-04    8.473242E-04    8.642749E-04 <
   479    8.068804E-04    8.170089E-04    8.438693E-04    8.594093E-04 <
   480    8.055918E-04    8.158891E-04    8.437768E-04    8.592858E-04 <
   481    8.057998E-04    8.148352E-04    8.421656E-04    8.572154E-04 <
   482    8.052844E-04    8.142880E-04    8.421377E-04    8.575718E-04 <
   483    8.040990E-04    8.132236E-04    8.418498E-04    8.585386E-04 <
   484    8.020400E-04    8.118695E-04    8.389761E-04    8.571128E-04 <
   485    8.018369E-04    8.128876E-04    8.400117E-04    8.602374E-04 <
   486    8.011796E-04    8.114344E-04    8.388654E-04    8.577002E-04 <
   487    8.002278E-04    8.106932E-04    8.359593E-04    8.553404E-04 <
   488    7.992807E-04    8.099610E-04    8.344785E-04    8.536650E-04 <
   489    7.954386E-04    8.076650E-04    8.280066E-04    8.472630E-04 <
   490    7.951292E-04    8.060895E-04    8.261200E-04    8.426078E-04 <
   491    7.942695E-04    8.064149E-04    8.263144E-04    8.428338E-04 <
   492    7.938197E-04    8.056463E-04    8.253049E-04    8.421937E-04 <
   493    7.914135E-04    8.044187E-04    8.228057E-04    8.403718E-04 <
   494    7.896103E-04    8.034212E-04    8.201616E-04    8.380191E-04 <
   495    7.885251E-04    8.029095E-04    8.179124E-04    8.364051E-04 <
   496    7.880909E-04    8.021225E-04    8.164906E-04    8.350745E-04 <
   497    7.854477E-04    8.020232E-04    8.104647E-04    8.325230E-04 <
   498    7.861070E-04    8.010761E-04    8.129643E-04    8.339515E-04 <
   499    7.863304E-04    8.007795E-04    8.139599E-04    8.350564E-04 <
   500    7.861780E-04    8.005944E-04    8.140601E-04    8.358108E-04 <
   501    7.857579E-04    8.003880E-04    8.136212E-04    8.360840E-04 <
   502    7.844630E-04    7.998076E-04    8.121007E-04    8.359829E-04 <
   503    7.819945E-04    7.988603E-04    8.097018E-04    8.351730E-04 <
   504    7.804178E-04    7.977618E-04    8.085819E-04    8.339054E-04 <
   505    7.777883E-04    7.968770E-04    8.061777E-04    8.306286E-04 <
   506    7.753815E-04    7.949610E-04    8.051624E-04    8.301264E-04 <
   507    7.759988E-04    7.928564E-04    8.055517E-04    8.284274E-04 <
   508    7.753078E-04    7.912510E-04    8.041512E-04    8.272349E-04 <
   509    7.812038E-04    7.942716E-04    8.069223E-04    8.259934E-04 <
   510    7.755722E-04    7.910671E-04    8.041898E-04    8.264031E-04 <
   511    7.750731E-04    7.906048E-04    8.030676E-04    8.258981E-04 <
   512    7.751580E-04    7.902686E-04    8.006843E-04    8.224402E-04 <
   513    7.726119E-04    7.891527E-04    7.994324E-04    8.224661E-04 <
   514    7.706921E-04    7.886659E-04    7.990429E-04    8.223848E-04 <
   515    7.688670E-04    7.879049E-04    7.973822E-04    8.216402E-04 <
   516    7.674244E-04    7.870237E-04    7.962534E-04    8.203453E-04 <
   517    7.664801E-04    7.861059E-04    8.005507E-04    8.204873E-04 <
   518    7.657511E-04    7.856436E-04    7.971928E-04    8.175756E-04 <
   519    7.639403E-04    7.842275E-04    7.961053E-04    8.167183E-04 <
   520    7.627812E-04    7.838025E-04    7.940485E-04    8.155468E-04 <
   521    7.623826E-04    7.831647E-04    7.925403E-04    8.144732E-04 <
   522    7.617861E-04    7.823616E-04    7.911625E-04    8.132838E-04 <
   523    7.910934E-04    8.002952E-04    8.292832E-04    8.438468E-04 <
   524    7.624658E-04    7.819622E-04    7.926540E-04    8.146008E-04 <
   525    7.606570E-04    7.806141E-04    7.896737E-04    8.126899E-04 <
   526    7.599501E-04    7.801385E-04    7.889673E-04    8.123525E-04 <
   527    7.595289E-04    7.799302E-04    7.889589E-04    8.124488E-04 <
   528    7.592669E-04    7.797942E-04    7.889618E-04    8.125010E-04 <
   529    7.587994E-04    7.794614E-04    7.887744E-04    8.124288E-04 <
   530    7.583137E-04    7.788292E-04    7.881408E-04    8.122072E-04 <
   531    7.572599E-04    7.776159E-04    7.857556E-04    8.104236E-04 <
   532    7.560370E-04    7.759975E-04    7.835379E-04    8.093939E-04 <
   533    7.541603E-04    7.746341E-04    7.791020E-04    8.068759E-04 <
   534    7.529591E-04    7.730839E-04    7.784598E-04    8.050706E-04 <
   535    7.505774E-04    7.713879E-04    7.783747E-04    8.044904E-04 <
   536    7.482014E-04    7.702948E-04    7.787735E-04    8.044631E-04 <
   537    7.500404E-04    7.709114E-04    7.787556E-04    8.040838E-04 <
   538    7.477316E-04    7.698150E-04    7.776365E-04    8.037579E-04 <
   539    7.466534E-04    7.694226E-04    7.783190E-04    8.043363E-04 <
   540    7.463032E-04    7.688776E-04    7.801290E-04    8.048973E-04 <
   541    7.440992E-04    7.678519E-04    7.795813E-04    8.046102E-04 <
   542    7.431384E-04    7.667439E-04    7.789892E-04    8.037834E-04 <
   543    7.440342E-04    7.654519E-04    7.814367E-04    8.037867E-04 <
   544    7.420024E-04    7.646731E-04    7.773965E-04    8.020376E-04 <
   545    7.411882E-04    7.642662E-04    7.754482E-04    8.013698E-04 <
   546    7.402602E-04    7.639600E-04    7.737821E-04    8.007592E-04 <
   547    7.634267E-04    7.784812E-04    7.961372E-04    8.197683E-04 <
   548    7.405599E-04    7.638473E-04    7.739620E-04    8.010772E-04 <
   549    7.391095E-04    7.633719E-04    7.720986E-04    8.001594E-04 <
   550    7.364277E-04    7.624788E-04    7.675683E-04    7.974744E-04 <
   551    7.344882E-04    7.617860E-04    7.651552E-04    7.959654E-04 <
   552    7.322322E-04    7.608341E-04    7.638944E-04    7.956931E-04 <
   553    7.324913E-04    7.618242E-04    7.591666E-04    7.929423E-04 <
   554    7.311160E-04    7.601060E-04    7.607119E-04    7.934808E-04 <
   555    7.307863E-04    7.595283E-04    7.615665E-04    7.938326E-04 <
   556    7.309368E-04    7.590989E-04    7.627975E-04    7.941432E-04 <
   557    7.310059E-04    7.588615E-04    7.630020E-04    7.940392E-04 <
   558    7.323576E-04    7.598659E-04    7.641053E-04    7.949677E-04 <
   559    7.306518E-04    7.586728E-04    7.628890E-04    7.938966E-04 <
   560    7.306144E-04    7.581623E-04    7.631291E-04    7.933686E-04 <
   561    7.307244E-04    7.575491E-04    7.636273E-04    7.928367E-04 <
   562    7.308049E-04    7.571113E-04    7.638533E-04    7.925066E-04 <
   563    7.305371E-04    7.568180E-04    7.641376E-04    7.924578E-04 <
   564    7.311573E-04    7.567654E-04    7.643488E-04    7.923151E-04 <
   565    7.295698E-04    7.558890E-04    7.649779E-04    7.919393E-04 <
   566    7.282798E-04    7.553485E-04    7.642705E-04    7.915193E-04 <
   567    7.252507E-04    7.542342E-04    7.618893E-04    7.903829E-04 <
   568    7.239274E-04    7.538191E-04    7.607417E-04    7.900259E-04 <
   569    7.245401E-04    7.536440E-04    7.612240E-04    7.895804E-04 <
   570    7.236733E-04    7.534826E-04    7.593810E-04    7.890904E-04 <
   571    7.234158E-04    7.533738E-04    7.589283E-04    7.890183E-04 <
   572    7.227749E-04    7.533027E-04    7.582560E-04    7.885888E-04 <
   573    7.229869E-04    7.531743E-04    7.589094E-04    7.889558E-04 <
   574    7.228871E-04    7.530900E-04    7.592325E-04    7.890987E-04 <
   575    7.224648E-04    7.529520E-04    7.595314E-04    7.892036E-04 <
   576    7.219865E-04    7.528378E-04    7.595581E-04    7.891631E-04 <
   577    7.210655E-04    7.525816E-04    7.594621E-04    7.890221E-04 <
   578    7.199321E-04    7.521077E-04    7.586717E-04    7.884216E-04 <
   579    7.177890E-04    7.533185E-04    7.630128E-04    7.954836E-04 <
   580    7.181912E-04    7.516847E-04    7.592434E-04    7.898707E-04 <
   581    7.179341E-04    7.512928E-04    7.590306E-04    7.892142E-04 <
   582    7.178654E-04    7.510115E-04    7.587302E-04    7.888348E-04 <
   583    7.172698E-04    7.506425E-04    7.569639E-04    7.879858E-04 <
   584    7.176390E-04    7.504001E-04    7.575543E-04    7.877621E-04 <
   585    7.175462E-04    7.500468E-04    7.577717E-04    7.876176E-04 <
   586    7.176127E-04    7.496904E-04    7.582454E-04    7.876980E-04 <
   587    7.176636E-04    7.495353E-04    7.583473E-04    7.876687E-04 <
   588    7.174508E-04    7.492541E-04    7.581440E-04    7.872920E-04 <
   589    7.163735E-04    7.487276E-04    7.567965E-04    7.863526E-04 <
   590    7.175061E-04    7.485796E-04    7.587358E-04    7.855764E-04 <
   591    7.197508E-04    7.512377E-04    7.574573E-04    7.846705E-04 <
   592    7.159186E-04    7.479228E-04    7.565427E-04    7.839157E-04 <
   593    7.137515E-04    7.472874E-04    7.542036E-04    7.835136E-04 <
   594    7.143480E-04    7.470342E-04    7.562549E-04    7.841510E-04 <
   595    7.135976E-04    7.466084E-04    7.553820E-04    7.831709E-04 <
   596    7.127676E-04    7.461526E-04    7.559115E-04    7.831848E-04 <
   597    7.132333E-04    7.456643E-04    7.559332E-04    7.821746E-04 <
   598    7.137904E-04    7.453498E-04    7.564853E-04    7.820315E-04 <
   599    7.135914E-04    7.451657E-04    7.557131E-04    7.817591E-04 <
   600    7.135084E-04    7.450311E-04    7.557814E-04    7.817205E-04 <
   601    7.131866E-04    7.446577E-04    7.553269E-04    7.812377E-04 <
   602    7.124174E-04    7.439432E-04    7.539069E-04    7.800093E-04 <
   603    7.121911E-04    7.435027E-04    7.523789E-04    7.775046E-04 <
   604    7.110616E-04    7.427967E-04    7.504964E-04    7.766995E-04 <
   605    7.106256E-04    7.424813E-04    7.498678E-04    7.761416E-04 <
   606    7.098091E-04    7.418041E-04    7.480161E-04    7.750823E-04 <
   607    7.120418E-04    7.413877E-04    7.528850E-04    7.756266E-04 <
   608    7.086715E-04    7.401168E-04    7.480486E-04    7.745640E-04 <
   609    7.073127E-04    7.393193E-04    7.464509E-04    7.747781E-04 <
   610    7.064311E-04    7.385481E-04    7.459451E-04    7.756772E-04 <
   611    7.224072E-04    7.446007E-04    7.639177E-04    7.838716E-04 <
   612    7.069480E-04    7.384434E-04    7.468539E-04    7.758836E-04 <
   613    7.067876E-04    7.381125E-04    7.474377E-04    7.764935E-04 <
   614    7.064685E-04    7.378036E-04    7.477707E-04    7.763595E-04 <
   615    7.066620E-04    7.375174E-04    7.482497E-04    7.761466E-04 <
   616    7.061632E-04    7.372397E-04    7.471359E-04    7.748869E-04 <
   617    7.062260E-04    7.369298E-04    7.468181E-04    7.743829E-04 <
   618    7.052212E-04    7.367636E-04    7.438836E-04    7.728120E-04 <
   619    7.051783E-04    7.360832E-04    7.441444E-04    7.729577E-04 <
   620    7.045107E-04    7.357310E-04    7.436615E-04    7.731056E-04 <
   621    7.029494E-04    7.350345E-04    7.419880E-04    7.730670E-04 <
   622    7.023339E-04    7.344701E-04    7.405764E-04    7.729185E-04 <
   623    7.020086E-04    7.340401E-04    7.394542E-04    7.719930E-04 <
   624    7.017993E-04    7.335748E-04    7.383082E-04    7.707556E-04 <
   625    7.011957E-04    7.332806E-04    7.374881E-04    7.705196E-04 <
   626    6.988841E-04    7.325425E-04    7.353812E-04    7.707029E-04 <
   627    6.969777E-04    7.323237E-04    7.327936E-04    7.708383E-04 <
   628    6.963713E-04    7.317775E-04    7.331471E-04    7.713035E-04 <
   629    6.958318E-04    7.316431E-04    7.330700E-04    7.716727E-04 <
   630    6.952962E-04    7.314558E-04    7.329879E-04    7.718560E-04 <
   631    6.936230E-04    7.309990E-04    7.321947E-04    7.721418E-04 <
   632    6.949208E-04    7.307904E-04    7.338155E-04    7.700007E-04 <
   633    6.926411E-04    7.300549E-04    7.312625E-04    7.695650E-04 <
   634    6.917454E-04    7.296773E-04    7.291524E-04    7.680741E-04 <
   635    6.921370E-04    7.294796E-04    7.288424E-04    7.669397E-04 <
   636    6.918230E-04    7.293057E-04    7.279711E-04    7.658512E-04 <
   637    6.916761E-04    7.291513E-04    7.273578E-04    7.651975E-04 <
   638    6.913989E-04    7.287909E-04    7.263890E-04    7.644311E-04 <
   639    6.906269E-04    7.280175E-04    7.242769E-04    7.632631E-04 <
   640    6.885104E-04    7.267241E-04    7.196117E-04    7.617851E-04 <
   641    6.857883E-04    7.253439E-04    7.152048E-04    7.607962E-04 <
   642    6.843604E-04    7.240876E-04    7.147876E-04    7.606197E-04 <
   643    6.834869E-04    7.245001E-04    7.134019E-04    7.597318E-04 <
   644    6.832149E-04    7.237592E-04    7.134287E-04    7.598120E-04 <
   645    6.824539E-04    7.234496E-04    7.133034E-04    7.594974E-04 <
   646    6.816374E-04    7.230899E-04    7.140610E-04    7.609256E-04 <
   647    6.809102E-04    7.226647E-04    7.128820E-04    7.597629E-04 <
   648    6.799249E-04    7.219453E-04    7.109698E-04    7.578841E-04 <
   649    6.788291E-04    7.212431E-04    7.095685E-04    7.574542E-04 <
   650    6.778378E-04    7.205158E-04    7.088936E-04    7.568827E-04 <
   651    6.771490E-04    7.201746E-04    7.090718E-04    7.586877E-04 <
   652    6.771547E-04    7.200097E-04    7.092568E-04    7.585839E-04 <
   653    6.771166E-04    7.198538E-04    7.094826E-04    7.586935E-04 <
   654    6.769801E-04    7.196860E-04    7.094215E-04    7.586875E-04 <
   655    6.766167E-04    7.192868E-04    7.090344E-04    7.585245E-04 <
   656    6.773789E-04    7.190967E-04    7.101606E-04    7.593575E-04 <
   657    6.764598E-04    7.187471E-04    7.089752E-04    7.582828E-04 <
   658    6.763060E-04    7.186220E-04    7.087685E-04    7.578041E-04 <
   659    6.765164E-04    7.184316E-04    7.091010E-04    7.573037E-04 <
   660    6.763199E-04    7.181642E-04    7.083904E-04    7.568837E-04 <
   661    7.059275E-04    7.270532E-04    7.438080E-04    7.637402E-04 <
   662    6.775695E-04    7.180482E-04    7.105910E-04    7.566028E-04 <
   663    6.775098E-04    7.178063E-04    7.103562E-04    7.565210E-04 <
   664    6.774920E-04    7.174183E-04    7.099863E-04    7.566374E-04 <
   665    6.773151E-04    7.172617E-04    7.097580E-04    7.567149E-04 <
   666    6.765978E-04    7.168869E-04    7.093217E-04    7.568632E-04 <
   667    6.766813E-04    7.164395E-04    7.101303E-04    7.579819E-04 <
   668    6.753935E-04    7.159392E-04    7.093486E-04    7.578600E-04 <
   669    6.746128E-04    7.155992E-04    7.085874E-04    7.575775E-04 <
   670    6.740315E-04    7.152238E-04    7.085717E-04    7.574347E-04 <
   671    6.740959E-04    7.149341E-04    7.093122E-04    7.575665E-04 <
   672    6.742514E-04    7.145516E-04    7.095672E-04    7.578302E-04 <
   673    7.523624E-04    7.555377E-04    7.900673E-04    7.912741E-04 <
   674    6.746463E-04    7.144746E-04    7.099290E-04    7.573775E-04 <
   675    6.743478E-04    7.143384E-04    7.096030E-04    7.572265E-04 <
   676    6.739355E-04    7.139025E-04    7.093407E-04    7.573805E-04 <
   677    6.719547E-04    7.137039E-04    7.077916E-04    7.582763E-04 <
   678    6.720584E-04    7.132518E-04    7.078482E-04    7.583025E-04 <
   679    6.718750E-04    7.130776E-04    7.077324E-04    7.581588E-04 <
   680    6.715416E-04    7.127743E-04    7.078145E-04    7.582456E-04 <
   681    6.707114E-04    7.122509E-04    7.074654E-04    7.581551E-04 <
   682    6.721058E-04    7.124458E-04    7.124606E-04    7.616722E-04 <
   683    6.708567E-04    7.119932E-04    7.092235E-04    7.593631E-04 <
   684    6.699928E-04    7.115494E-04    7.085800E-04    7.590422E-04 <
   685    6.692378E-04    7.111420E-04    7.083482E-04    7.589046E-04 <
   686    6.683750E-04    7.109083E-04    7.075526E-04    7.588873E-04 <
   687    6.677470E-04    7.105611E-04    7.078702E-04    7.588561E-04 <
   688    7.283395E-04    7.517092E-04    7.590073E-04    8.011983E-04 <
   689    6.665218E-04    7.104515E-04    7.059815E-04    7.589699E-04 <
   690    6.659267E-04    7.101014E-04    7.062504E-04    7.589182E-04 <
   691    6.652815E-04    7.095648E-04    7.074014E-04    7.592716E-04 <
   692    6.651846E-04    7.093804E-04    7.078997E-04    7.593449E-04 <
   693    6.653763E-04    7.091140E-04    7.087247E-04    7.595318E-04 <
   694    6.703205E-04    7.111093E-04    7.137824E-04    7.596775E-04 <
   695    6.651956E-04    7.089333E-04    7.089800E-04    7.590907E-04 <
   696    6.654951E-04    7.086223E-04    7.094683E-04    7.590383E-04 <
   697    6.660070E-04    7.083291E-04    7.099012E-04    7.586683E-04 <
   698    6.656108E-04    7.081956E-04    7.086688E-04    7.581084E-04 <
   699    6.697592E-04    7.091471E-04    7.133083E-04    7.565908E-04 <
   700    6.660374E-04    7.081389E-04    7.090880E-04    7.575915E-04 <
   701    6.657910E-04    7.080885E-04    7.088162E-04    7.574904E-04 <
   702    6.654612E-04    7.079933E-04    7.085352E-04    7.572881E-04 <
   703    6.651547E-04    7.078804E-04    7.085983E-04    7.571659E-04 <
   704    6.646940E-04    7.077737E-04    7.086626E-04    7.572478E-04 <
   705    6.656686E-04    7.078530E-04    7.101169E-04    7.571531E-04 <
   706    6.649132E-04    7.077096E-04    7.091032E-04    7.571345E-04 <
   707    6.646411E-04    7.075752E-04    7.090053E-04    7.572459E-04 <
   708    6.641109E-04    7.072311E-04    7.082050E-04    7.572893E-04 <
   709    6.640213E-04    7.069373E-04    7.082824E-04    7.576438E-04 <
   710    6.642983E-04    7.100780E-04    7.024139E-04    7.580169E-04 <
   711    6.635481E-04    7.068330E-04    7.068513E-04    7.571481E-04 <
   712    6.636128E-04    7.065068E-04    7.069027E-04    7.573520E-04 <
   713    6.635984E-04    7.062441E-04    7.063462E-04    7.573932E-04 <
   714    6.636150E-04    7.060981E-04    7.061131E-04    7.572544E-04 <
   715    6.633413E-04    7.059148E-04    7.055822E-04    7.570472E-04 <
   716    6.625868E-04    7.055652E-04    7.044329E-04    7.568065E-04 <
   717    6.658212E-04    7.058812E-04    7.114781E-04    7.578559E-04 <
   718    6.633266E-04    7.053951E-04    7.065060E-04    7.569314E-04 <
   719    6.617948E-04    7.048931E-04    7.041280E-04    7.569162E-04 <
   720    6.609322E-04    7.045861E-04    7.030570E-04    7.570896E-04 <
   721    6.607810E-04    7.044916E-04    7.030718E-04    7.573109E-04 <
   722    6.608158E-04    7.044515E-04    7.033344E-04    7.574345E-04 <
   723    6.608568E-04    7.042882E-04    7.040031E-04    7.577810E-04 <
   724    6.601967E-04    7.039107E-04    7.039392E-04    7.583420E-04 <
   725    6.648783E-04    7.043597E-04    7.124722E-04    7.596402E-04 <
   726    6.612540E-04    7.036870E-04    7.064337E-04    7.584399E-04 <
   727    6.601897E-04    7.033341E-04    7.054972E-04    7.586001E-04 <
   728    6.592417E-04    7.030265E-04    7.040136E-04    7.586894E-04 <
   729    6.591806E-04    7.029783E-04    7.038570E-04    7.586798E-04 <
   730    6.589188E-04    7.028323E-04    7.027610E-04    7.581270E-04 <
   731    6.713557E-04    7.066535E-04    7.162108E-04    7.628737E-04 <
   732    6.593330E-04    7.027120E-04    7.035445E-04    7.582868E-04 <
   733    6.592602E-04    7.024906E-04    7.035892E-04    7.582628E-04 <
   734    6.591085E-04    7.020652E-04    7.032414E-04    7.574237E-04 <
   735    6.588889E-04    7.018571E-04    7.024479E-04    7.564223E-04 <
   736    6.584460E-04    7.017145E-04    7.009957E-04    7.552284E-04 <
   737    6.583014E-04    7.015590E-04    7.012342E-04    7.553019E-04 <
   738    6.579784E-04    7.013538E-04    7.014881E-04    7.554672E-04 <
   739    6.578270E-04    7.011704E-04    7.017255E-04    7.555741E-04 <
   740    6.576482E-04    7.007610E-04    7.020164E-04    7.556316E-04 <
   741    6.590467E-04    7.001568E-04    7.044418E-04    7.559692E-04 <
   742    6.577297E-04    6.999093E-04    7.018963E-04    7.565013E-04 <
   743    6.584558E-04    6.991911E-04    7.030521E-04    7.552493E-04 <
   744    6.585929E-04    6.989563E-04    7.029341E-04    7.547867E-04 <
   745    6.586784E-04    6.986671E-04    7.028958E-04    7.543631E-04 <
   746    6.572168E-04    6.985780E-04    7.011088E-04    7.553509E-04 <
   747    6.574451E-04    6.980881E-04    7.017818E-04    7.543814E-04 <
   748    6.574943E-04    6.979029E-04    7.022531E-04    7.542025E-04 <
   749    6.565805E-04    6.978328E-04    7.013746E-04    7.543822E-04 <
   750    6.572746E-04    6.977139E-04    7.030110E-04    7.542805E-04 <
   751    6.571763E-04    6.976809E-04    7.027073E-04    7.542498E-04 <
   752    6.568018E-04    6.975336E-04    7.015766E-04    7.538918E-04 <
   753    6.565294E-04    6.973917E-04    7.007325E-04    7.533810E-04 <
   754    6.562583E-04    6.971775E-04    6.996029E-04    7.528606E-04 <
   755    6.564485E-04    6.979029E-04    7.015013E-04    7.523564E-04 <
   756    6.555553E-04    6.969101E-04    6.995612E-04    7.522328E-04 <
   757    6.577504E-04    6.983417E-04    7.034614E-04    7.559301E-04 <
   758    6.550982E-04    6.966500E-04    6.993496E-04    7.527321E-04 <
   759    6.551021E-04    6.988238E-04    6.959070E-04    7.508087E-04 <
   760    6.543369E-04    6.964488E-04    6.977157E-04    7.516457E-04 <
   761    6.533168E-04    6.958495E-04    6.975619E-04    7.517954E-04 <
   762    6.521067E-04    6.952110E-04    6.983456E-04    7.527424E-04 <
   763    6.518621E-04    6.951359E-04    6.983044E-04    7.528118E-04 <
   764    6.518104E-04    6.949220E-04    6.989379E-04    7.529317E-04 <
   765    6.508205E-04    6.945591E-04    6.987056E-04    7.529573E-04 <
   766    6.506113E-04    6.940008E-04    6.996860E-04    7.526397E-04 <
   767    6.488829E-04    6.933036E-04    6.980872E-04    7.518103E-04 <
   768    6.497503E-04    6.930366E-04    6.993937E-04    7.514679E-04 <
   769    6.498866E-04    6.929051E-04    6.997522E-04    7.513585E-04 <
   770    6.496132E-04    6.924893E-04    7.003197E-04    7.513203E-04 <
   771    6.488191E-04    6.918927E-04    7.007245E-04    7.515037E-04 <
   772    6.468780E-04    6.911658E-04    6.985559E-04    7.519883E-04 <
   773    6.470201E-04    6.906212E-04    6.995173E-04    7.516730E-04 <
   774    6.463459E-04    6.904302E-04    6.983735E-04    7.514139E-04 <
   775    6.473459E-04    6.904581E-04    6.994594E-04    7.513346E-04 <
   776    6.466425E-04    6.903364E-04    6.987809E-04    7.512725E-04 <
   777    6.462602E-04    6.902347E-04    6.980471E-04    7.509919E-04 <
   778    6.461065E-04    6.900975E-04    6.976940E-04    7.506541E-04 <
   779    6.462673E-04    6.898380E-04    6.977429E-04    7.501366E-04 <
   780    6.461537E-04    6.894425E-04    6.976686E-04    7.499728E-04 <
   781    6.473263E-04    6.890768E-04    6.991644E-04    7.505517E-04 <
   782    6.461258E-04    6.893208E-04    6.959494E-04    7.491429E-04 <
   783    6.465176E-04    6.889023E-04    6.975398E-04    7.497577E-04 <
   784    6.456308E-04    6.885573E-04    6.972931E-04    7.503270E-04 <
   785    6.451616E-04    6.882754E-04    6.977739E-04    7.508688E-04 <
   786    6.447209E-04    6.879813E-04    6.983463E-04    7.514604E-04 <
   787    6.442357E-04    6.875695E-04    6.991010E-04    7.517784E-04 <
   788    6.438430E-04    6.870868E-04    7.002181E-04    7.518650E-04 <
   789    6.442962E-04    6.868239E-04    7.015006E-04    7.512791E-04 <
   790    6.441334E-04    6.866464E-04    7.005599E-04    7.505263E-04 <
   791    6.442714E-04    6.865688E-04    7.004173E-04    7.501331E-04 <
   792    6.440655E-04    6.864229E-04    6.997480E-04    7.495170E-04 <
   793    6.436166E-04    6.860359E-04    6.987989E-04    7.488656E-04 <
   794    6.423824E-04    6.852850E-04    6.971514E-04    7.482799E-04 <
   795    6.491382E-04    6.868751E-04    7.044802E-04    7.481475E-04 <
   796    6.427823E-04    6.849713E-04    6.977738E-04    7.476338E-04 <
   797    6.410611E-04    6.845382E-04    6.954399E-04    7.477825E-04 <
   798    6.403805E-04    6.844079E-04    6.947427E-04    7.480196E-04 <
   799    6.401537E-04    6.843621E-04    6.944575E-04    7.481144E-04 <
   800    6.398862E-04    6.843331E-04    6.940023E-04    7.480004E-04 <
   801    6.395361E-04    6.842832E-04    6.935071E-04    7.477761E-04 <
   802    6.393237E-04    6.842079E-04    6.932302E-04    7.474437E-04 <
   803    6.388792E-04    6.840477E-04    6.929460E-04    7.469876E-04 <
   804    6.377722E-04    6.836522E-04    6.923222E-04    7.462662E-04 <
   805    6.357652E-04    6.833316E-04    6.909177E-04    7.464429E-04 <
   806    6.333927E-04    6.833028E-04    6.870623E-04    7.452916E-04 <
   807    6.343169E-04    6.831187E-04    6.887160E-04    7.456959E-04 <
   808    6.345522E-04    6.829231E-04    6.894671E-04    7.458927E-04 <
   809    6.348972E-04    6.826917E-04    6.901675E-04    7.460231E-04 <
   810    6.348440E-04    6.825369E-04    6.898762E-04    7.457338E-04 <
   811    6.341589E-04    6.822121E-04    6.878979E-04    7.444110E-04 <
   812    6.332384E-04    6.821314E-04    6.858209E-04    7.420709E-04 <
   813    6.318865E-04    6.818478E-04    6.820855E-04    7.409564E-04 <
   814    6.316564E-04    6.815195E-04    6.835151E-04    7.412474E-04 <
   815    6.313022E-04    6.814775E-04    6.831012E-04    7.411720E-04 <
   816    6.306626E-04    6.814001E-04    6.823118E-04    7.409301E-04 <
   817    6.303219E-04    6.813192E-04    6.818438E-04    7.407397E-04 <
   818    6.301899E-04    6.811497E-04    6.814163E-04    7.404997E-04 <
   819    6.304844E-04    6.809061E-04    6.809318E-04    7.405039E-04 <
   820    6.312394E-04    6.811330E-04    6.807859E-04    7.396818E-04 <
   821    6.304264E-04    6.807237E-04    6.805121E-04    7.399861E-04 <
   822    6.310999E-04    6.805505E-04    6.813655E-04    7.399084E-04 <
   823    6.325894E-04    6.804153E-04    6.843991E-04    7.407345E-04 <
   824    6.322415E-04    6.801706E-04    6.837855E-04    7.400551E-04 <
   825    6.315506E-04    6.799754E-04    6.828991E-04    7.396895E-04 <
   826    6.303628E-04    6.796728E-04    6.813240E-04    7.394838E-04 <
   827    6.298581E-04    6.794914E-04    6.811161E-04    7.398278E-04 <
   828    6.294097E-04    6.792691E-04    6.809666E-04    7.400626E-04 <
   829    6.303185E-04    6.793001E-04    6.830657E-04    7.409440E-04 <
   830    6.297266E-04    6.792144E-04    6.818418E-04    7.404015E-04 <
   831    6.296530E-04    6.791265E-04    6.817358E-04    7.402220E-04 <
   832    6.297159E-04    6.790940E-04    6.817872E-04    7.400381E-04 <
   833    6.296254E-04    6.790066E-04    6.814765E-04    7.394162E-04 <
   834    6.296454E-04    6.789340E-04    6.818654E-04    7.388785E-04 <
   835    6.293818E-04    6.788735E-04    6.813291E-04    7.385718E-04 <
   836    6.286983E-04    6.787644E-04    6.802063E-04    7.381060E-04 <
   837    6.281846E-04    6.786827E-04    6.793698E-04    7.377066E-04 <
   838    6.275336E-04    6.785761E-04    6.788112E-04    7.375436E-04 <
   839    6.280999E-04    6.794834E-04    6.778005E-04    7.365945E-04 <
   840    6.272558E-04    6.785342E-04    6.781804E-04    7.371984E-04 <
   841    6.270905E-04    6.784475E-04    6.782837E-04    7.373001E-04 <
   842    6.270483E-04    6.783395E-04    6.786606E-04    7.374690E-04 <
   843    6.270067E-04    6.782784E-04    6.785536E-04    7.374326E-04 <
   844    6.268877E-04    6.781857E-04    6.780279E-04    7.371219E-04 <
   845    6.269401E-04    6.780842E-04    6.773997E-04    7.367537E-04 <
   846    6.278739E-04    6.780191E-04    6.778020E-04    7.358747E-04 <
   847    6.274758E-04    6.779425E-04    6.773499E-04    7.359383E-04 <
   848    6.272410E-04    6.778730E-04    6.770580E-04    7.358528E-04 <
   849    6.269636E-04    6.777746E-04    6.763864E-04    7.356206E-04 <
   850    6.296854E-04    6.790191E-04    6.802450E-04    7.369268E-04 <
   851    6.269979E-04    6.776974E-04    6.767783E-04    7.355939E-04 <
   852    6.269894E-04    6.775771E-04    6.765753E-04    7.352790E-04 <
   853    6.270864E-04    6.773728E-04    6.760717E-04    7.344717E-04 <
   854    6.317396E-04    6.787468E-04    6.836204E-04    7.377858E-04 <
   855    6.273609E-04    6.773494E-04    6.766643E-04    7.346820E-04 <
   856    6.273398E-04    6.772863E-04    6.765510E-04    7.344245E-04 <
   857    6.272184E-04    6.770729E-04    6.770992E-04    7.346126E-04 <
   858    6.277665E-04    6.770118E-04    6.754894E-04    7.315744E-04 <
   859    6.262672E-04    6.763116E-04    6.742907E-04    7.321009E-04 <
   860    6.249351E-04    6.757966E-04    6.726165E-04    7.321620E-04 <
   861    6.242643E-04    6.755285E-04    6.712072E-04    7.317000E-04 <
   862    6.235186E-04    6.752123E-04    6.705051E-04    7.315256E-04 <
   863    6.239802E-04    6.762445E-04    6.641935E-04    7.273624E-04 <
   864    6.230896E-04    6.751228E-04    6.685695E-04    7.303329E-04 <
   865    6.228505E-04    6.749398E-04    6.686403E-04    7.300893E-04 <
   866    6.226740E-04    6.747337E-04    6.687090E-04    7.297141E-04 <
   867    6.225856E-04    6.745547E-04    6.686405E-04    7.294354E-04 <
   868    6.227482E-04    6.743038E-04    6.686257E-04    7.291116E-04 <
   869    6.240247E-04    6.742632E-04    6.694233E-04    7.291974E-04 <
   870    6.249003E-04    6.740661E-04    6.709248E-04    7.285623E-04 <
   871    6.241012E-04    6.739743E-04    6.699270E-04    7.286928E-04 <
   872    6.238502E-04    6.739160E-04    6.694505E-04    7.287592E-04 <
   873    6.236904E-04    6.738256E-04    6.691027E-04    7.288305E-04 <
   874    6.233898E-04    6.736710E-04    6.688348E-04    7.288833E-04 <
   875    6.226205E-04    6.733725E-04    6.684319E-04    7.288081E-04 <
   876    6.302163E-04    6.782028E-04    6.753849E-04    7.326066E-04 <
   877    6.225431E-04    6.733125E-04    6.684436E-04    7.287172E-04 <
   878    6.209131E-04    6.738129E-04    6.646060E-04    7.276816E-04 <
   879    6.217628E-04    6.732079E-04    6.670652E-04    7.281812E-04 <
   880    6.207772E-04    6.729673E-04    6.671589E-04    7.283506E-04 <
   881    6.203658E-04    6.728456E-04    6.673326E-04    7.283138E-04 <
   882    6.201778E-04    6.727284E-04    6.675086E-04    7.281888E-04 <
   883    6.200667E-04    6.725711E-04    6.677013E-04    7.280547E-04 <
   884    6.198271E-04    6.722944E-04    6.678150E-04    7.281570E-04 <
   885    6.222957E-04    6.726717E-04    6.699352E-04    7.276024E-04 <
   886    6.201586E-04    6.721734E-04    6.681156E-04    7.277630E-04 <
   887    6.197289E-04    6.719584E-04    6.678174E-04    7.281611E-04 <
   888    6.196041E-04    6.718669E-04    6.674479E-04    7.284425E-04 <
   889    6.196429E-04    6.718328E-04    6.673586E-04    7.285319E-04 <
   890    6.197165E-04    6.717775E-04    6.673382E-04    7.285687E-04 <
   891    6.197796E-04    6.716524E-04    6.673754E-04    7.285251E-04 <
   892    6.196200E-04    6.714207E-04    6.674045E-04    7.282280E-04 <
   893    6.183370E-04    6.712191E-04    6.668893E-04    7.288391E-04 <
   894    6.174333E-04    6.711547E-04    6.651827E-04    7.267092E-04 <
   895    6.171736E-04    6.708525E-04    6.652416E-04    7.268002E-04 <
   896    6.168243E-04    6.707891E-04    6.648813E-04    7.266113E-04 <
   897    6.165102E-04    6.707353E-04    6.646522E-04    7.263881E-04 <
   898    6.160274E-04    6.706582E-04    6.641562E-04    7.259065E-04 <
   899    6.161875E-04    6.706390E-04    6.654125E-04    7.262857E-04 <
   900    6.152871E-04    6.704709E-04    6.637561E-04    7.253435E-04 <
   901    6.145468E-04    6.703918E-04    6.624926E-04    7.250086E-04 <
   902    6.144392E-04    6.703258E-04    6.626019E-04    7.250954E-04 <
   903    6.141199E-04    6.702931E-04    6.621304E-04    7.250221E-04 <
   904    6.140898E-04    6.702627E-04    6.623808E-04    7.251242E-04 <
   905    6.139266E-04    6.701954E-04    6.627052E-04    7.251099E-04 <
   906    6.138217E-04    6.701317E-04    6.628433E-04    7.250147E-04 <
   907    6.136035E-04    6.700289E-04    6.624058E-04    7.245563E-04 <
   908    6.132039E-04    6.699862E-04    6.614223E-04    7.245796E-04 <
   909    6.132803E-04    6.698646E-04    6.611770E-04    7.240078E-04 <
   910    6.134473E-04    6.698127E-04    6.609834E-04    7.237927E-04 <
   911    6.136733E-04    6.697208E-04    6.605880E-04    7.234549E-04 <
   912    6.143591E-04    6.695699E-04    6.607120E-04    7.230227E-04 <
   913    6.146608E-04    6.694353E-04    6.601854E-04    7.226470E-04 <
   914    6.150354E-04    6.692670E-04    6.609825E-04    7.224588E-04 <
   915    6.145491E-04    6.691055E-04    6.607047E-04    7.222385E-04 <
   916    6.161434E-04    6.703511E-04    6.626820E-04    7.247547E-04 <
   917    6.143765E-04    6.690618E-04    6.607349E-04    7.224343E-04 <
   918    6.139522E-04    6.689824E-04    6.604358E-04    7.222228E-04 <
   919    6.136741E-04    6.689048E-04    6.600114E-04    7.220424E-04 <
   920    6.131361E-04    6.687675E-04    6.584104E-04    7.214621E-04 <
   921    6.130515E-04    6.687169E-04    6.578991E-04    7.212761E-04 <
   922    6.128950E-04    6.686469E-04    6.573352E-04    7.209632E-04 <
   923    6.127544E-04    6.685380E-04    6.570369E-04    7.206744E-04 <
   924    6.127991E-04    6.686560E-04    6.544212E-04    7.195550E-04 <
   925    6.124929E-04    6.684436E-04    6.557186E-04    7.201252E-04 <
   926    6.123032E-04    6.682775E-04    6.557479E-04    7.197583E-04 <
   927    6.124178E-04    6.681211E-04    6.564870E-04    7.195716E-04 <
   928    6.121354E-04    6.680201E-04    6.564646E-04    7.192929E-04 <
   929    6.124326E-04    6.679158E-04    6.573384E-04    7.196630E-04 <
   930    6.118307E-04    6.677835E-04    6.561449E-04    7.195319E-04 <
   931    6.113343E-04    6.676094E-04    6.544778E-04    7.193040E-04 <
   932    6.110192E-04    6.674381E-04    6.533657E-04    7.187666E-04 <
   933    6.108783E-04    6.672606E-04    6.525287E-04    7.175206E-04 <
   934    6.106358E-04    6.671584E-04    6.522771E-04    7.173767E-04 <
   935    6.106553E-04    6.670878E-04    6.526358E-04    7.173186E-04 <
   936    6.107043E-04    6.669493E-04    6.534901E-04    7.172684E-04 <
   937    6.106162E-04    6.668306E-04    6.536800E-04    7.171876E-04 <
   938    6.101432E-04    6.665446E-04    6.533683E-04    7.168730E-04 <
   939    6.171189E-04    6.695516E-04    6.605948E-04    7.187288E-04 <
   940    6.101587E-04    6.665216E-04    6.534512E-04    7.167908E-04 <
   941    6.097063E-04    6.663663E-04    6.525437E-04    7.165870E-04 <
   942    6.095221E-04    6.663252E-04    6.526343E-04    7.171674E-04 <
   943    6.088107E-04    6.661574E-04    6.509755E-04    7.164952E-04 <
   944    6.083860E-04    6.660686E-04    6.502758E-04    7.161496E-04 <
   945    6.078746E-04    6.659485E-04    6.497907E-04    7.158051E-04 <
   946    6.078573E-04    6.657489E-04    6.501776E-04    7.153381E-04 <
   947    6.076820E-04    6.658726E-04    6.487880E-04    7.142027E-04 <
   948    6.076296E-04    6.656790E-04    6.495189E-04    7.148257E-04 <
   949    6.077972E-04    6.656030E-04    6.505850E-04    7.149162E-04 <
   950    6.079997E-04    6.655462E-04    6.516429E-04    7.150169E-04 <
   951    6.080484E-04    6.654984E-04    6.521568E-04    7.150202E-04 <
   952    6.079350E-04    6.653423E-04    6.529270E-04    7.148760E-04 <
   953    6.074386E-04    6.651229E-04    6.529584E-04    7.145227E-04 <
   954    6.080667E-04    6.648747E-04    6.540340E-04    7.145735E-04 <
   955    6.071620E-04    6.648355E-04    6.502060E-04    7.125901E-04 <
   956    6.072426E-04    6.646093E-04    6.518266E-04    7.132855E-04 <
   957    6.071778E-04    6.645057E-04    6.510502E-04    7.129808E-04 <
   958    6.071829E-04    6.644287E-04    6.504053E-04    7.127526E-04 <
   959    6.071078E-04    6.643516E-04    6.500398E-04    7.126098E-04 <
   960    6.065610E-04    6.640514E-04    6.491445E-04    7.121844E-04 <
   961    6.053474E-04    6.635329E-04    6.478577E-04    7.120383E-04 <
   962    6.254257E-04    6.776616E-04    6.649979E-04    7.165835E-04 <
   963    6.051351E-04    6.633841E-04    6.469390E-04    7.113737E-04 <
   964    6.040896E-04    6.629553E-04    6.466324E-04    7.111623E-04 <
   965    6.031970E-04    6.625820E-04    6.469093E-04    7.115479E-04 <
   966    6.030286E-04    6.624419E-04    6.472978E-04    7.113994E-04 <
   967    6.030006E-04    6.623562E-04    6.475461E-04    7.112712E-04 <
   968    6.028211E-04    6.621847E-04    6.474028E-04    7.109978E-04 <
   969    6.021883E-04    6.618670E-04    6.466808E-04    7.101864E-04 <
   970    6.018373E-04    6.619754E-04    6.473017E-04    7.106152E-04 <
   971    6.018670E-04    6.617947E-04    6.467730E-04    7.102581E-04 <
   972    6.015060E-04    6.616984E-04    6.459864E-04    7.099528E-04 <
   973    6.009742E-04    6.616031E-04    6.449418E-04    7.096656E-04 <
   974    6.003612E-04    6.614560E-04    6.439937E-04    7.093602E-04 <
   975    5.994442E-04    6.611737E-04    6.428819E-04    7.089928E-04 <
   976    5.997578E-04    6.607502E-04    6.438266E-04    7.087250E-04 <
   977    5.965734E-04    6.608988E-04    6.399596E-04    7.093073E-04 <
   978    5.977356E-04    6.605176E-04    6.415462E-04    7.086620E-04 <
   979    5.980247E-04    6.603253E-04    6.425441E-04    7.087863E-04 <
   980    5.982703E-04    6.602358E-04    6.435775E-04    7.090236E-04 <
   981    5.981894E-04    6.602013E-04    6.435118E-04    7.089975E-04 <
   982    5.979431E-04    6.599270E-04    6.440246E-04    7.090735E-04 <
   983    5.963626E-04    6.597181E-04    6.406003E-04    7.083313E-04 <
   984    5.962080E-04    6.593613E-04    6.408916E-04    7.082396E-04 <
   985    5.958798E-04    6.588513E-04    6.398863E-04    7.078764E-04 <
   986    5.957250E-04    6.586907E-04    6.392286E-04    7.075954E-04 <
   987    5.959185E-04    6.584451E-04    6.380601E-04    7.065116E-04 <
   988    5.974979E-04    6.587635E-04    6.398269E-04    7.064083E-04 <
   989    5.960839E-04    6.583813E-04    6.384254E-04    7.063473E-04 <
   990    5.958933E-04    6.583474E-04    6.384002E-04    7.063252E-04 <
   991    5.955894E-04    6.582715E-04    6.383851E-04    7.062525E-04 <
   992    5.954030E-04    6.581805E-04    6.383885E-04    7.061143E-04 <
   993    5.952073E-04    6.580322E-04    6.379684E-04    7.057479E-04 <
   994    5.951760E-04    6.578483E-04    6.374212E-04    7.052787E-04 <
   995    5.953113E-04    6.576632E-04    6.372435E-04    7.048854E-04 <
   996    5.954057E-04    6.575196E-04    6.366264E-04    7.042646E-04 <
   997    5.951310E-04    6.573507E-04    6.359137E-04    7.038801E-04 <
   998    5.947784E-04    6.572614E-04    6.352700E-04    7.029618E-04 <
   999    5.942915E-04    6.571453E-04    6.352180E-04    7.034144E-04 <
  1000    5.938192E-04    6.570804E-04    6.348862E-04    7.036324E-04 <
 
 Training finished.
 
 ----------------------------------------------------------------------
                         Storing final energies                        
 ----------------------------------------------------------------------
 
 Energies of training structures : energies.train.PROCESS
 Energies of testing structures  : energies.test.PROCESS
 (Manually concatenate the files from different processes.)
 
 Final MAE of training set  =      0.6 meV/atom
 Final MAE of testing set   =      0.6 meV/atom
 
 Final RMSE of training set =      0.7 meV/atom
 Final RMSE of testing set  =      0.7 meV/atom
 
 ----------------------------------------------------------------------
                            Storing networks                           
 ----------------------------------------------------------------------
 
 Saving the O network to file : O.10t-10t.ann
 Saving the H network to file : H.10t-10t.ann
 
                                                                       
                          2017-10-01  13:01:04                         
                                                                       
 ======================================================================
                     Neural Network training done.                     
 ======================================================================
